{
  "kind": "collectionType",
  "collectionName": "estados_paradas",
  "info": {
    "singularName": "estado-parada",
    "pluralName": "estados-paradas",
    "displayName": "estadosParadas"
  },
  "options": {
    "draftAndPublish": true
  },
  "pluginOptions": {},
  "attributes": {
    "num": {
      "type": "uid",
      "required": true
    },
    "descripcion": {
      "type": "string",
      "required": true,
      "unique": true
    }
  }
}
