{
  "kind": "collectionType",
  "collectionName": "tipos_coberturas",
  "info": {
    "singularName": "tipo-cobertura",
    "pluralName": "tipos-coberturas",
    "displayName": "tiposCoberturas"
  },
  "options": {
    "draftAndPublish": true
  },
  "pluginOptions": {},
  "attributes": {
    "num": {
      "type": "uid",
      "required": true
    },
    "nombre": {
      "type": "string",
      "unique": true,
      "required": true
    }
  }
}
